Homework 6
…
2) Parse what is returned and find your way to the data frame that has the actual article information in it (check content). Use the pluck() function from purrr to grab the articles element. Note the first column should be a list column

parsed <- fromJSON(rawToChar(apple_articles$content))

article_df <- pluck(parsed, "articles")

parsed_apple_articles <- as.tibble(article_df)

Warning: `as.tibble()` was deprecated in tibble 2.0.0.
ℹ Please use `as_tibble()` instead.
ℹ The signature and semantics have changed, see `?as_tibble`.

parsed_apple_articles

# A tibble: 100 × 8
   source$id $name author title description url   urlToImage publishedAt content
   <chr>     <chr> <chr>  <chr> <chr>       <chr> <chr>      <chr>       <chr>  
 1 <NA>      [Rem… <NA>   [Rem… [Removed]   http… <NA>       2024-09-18… "[Remo…
 2 <NA>      [Rem… <NA>   [Rem… [Removed]   http… <NA>       2024-10-01… "[Remo…
 3 the-verge The … Wes D… The … Apple is r… http… https://c… 2024-10-01… "The n…
 4 <NA>      Yaho… Anna … Appl… Employees … http… <NA>       2024-09-24… "If yo…
 5 <NA>      [Rem… <NA>   [Rem… [Removed]   http… <NA>       2024-09-16… "[Remo…
 6 wired     Wired Julia… Appl… Apple Inte… http… https://m… 2024-09-18… "Creat…
 7 the-verge The … Jay P… You’… iOS 18 let… http… https://c… 2024-09-18… "Youll…
 8 <NA>      [Rem… <NA>   [Rem… [Removed]   http… <NA>       2024-10-10… "[Remo…
 9 <NA>      [Rem… <NA>   [Rem… [Removed]   http… <NA>       2024-10-08… "[Remo…
10 <NA>      Yaho… Prana… Appl… Apple has … http… <NA>       2024-09-18… "If yo…
# ℹ 90 more rows
…
